[
    {
        "title": "廢棄物比例因數樣品分析結果紀錄表",
        "value": "",
        "normal": true
    },
    {
        "title": "廠別",
        "value": "核廠",
        "normal": true
    },
    {
        "title": "機組",
        "value": "0",
        "normal": true
    },
    {
        "title": "廢料源代號",
        "value": "B",
        "normal": true
    },
    {
        "title": "廢料源名稱",
        "value": "廢樹脂",
        "normal": true
    },
    {
        "title": "樣品編號",
        "value": "80T-203",
        "normal": true
    },
    {
        "title": "取樣日期",
        "value": "80/1/5",
        "normal": true
    },
    {
        "title": "運送日期",
        "value": "105/2/19",
        "normal": true
    },
    {
        "title": "列印日期",
        "value": "109/2/3",
        "normal": true
    },
    {
        "title": "核種名稱",
        "value": "樣品活度(Bq/g)",
        "normal": true
    },
    {
        "title": "H-3",
        "value": "3.31E+01±3.94E+00",
        "normal": true
    },
    {
        "title": "C-14",
        "value": "2.45E+01±6.57E-01",
        "normal": true
    },
    {
        "title": "Fe-55",
        "value": "8.30E+05±1.81E+01",
        "normal": true
    },
    {
        "title": "Co-60",
        "value": "4.14E+04±6.44E+02",
        "normal": true
    },
    {
        "title": "Ni-63",
        "value": "1.29E+02±2.97E+00",
        "normal": true
    },
    {
        "title": "Sr-90",
        "value": "<9.06E-01",
        "normal": true
    },
    {
        "title": "Tc-99",
        "value": "8.35E+00±2.01E-01",
        "normal": true
    },
    {
        "title": "I-129",
        "value": "<2.36E+00",
        "normal": true
    },
    {
        "title": "Cs-137",
        "value": "1.86E+03±4.50E+01",
        "normal": true
    },
    {
        "title": "Pu-238",
        "value": "<1.41E-02",
        "normal": true
    },
    {
        "title": "Pu-239/240",
        "value": "1.66E-02±4.79E-03",
        "normal": true
    },
    {
        "title": "Pu-241",
        "value": "<1.30E+01",
        "normal": true
    },
    {
        "title": "Am-241",
        "value": "5.91E-01±2.01E-02",
        "normal": true
    },
    {
        "title": "Cm-242",
        "value": "<1.31E-02",
        "normal": true
    },
    {
        "title": "Cm-244",
        "value": "4.29E-01±2.47E-02",
        "normal": true
    }
]