[
    {
        "title": "廢棄物比例因數樣品分析結果紀錄表",
        "value": "",
        "normal": true
    },
    {
        "title": "廠別",
        "value": "核三廠",
        "normal": true
    },
    {
        "title": "機組",
        "value": "0",
        "normal": true
    },
    {
        "title": "廢料源代號",
        "value": "EB",
        "normal": true
    },
    {
        "title": "廢料源名稱",
        "value": "濃縮廢液",
        "normal": true
    },
    {
        "title": "樣品編號",
        "value": "108T-305",
        "normal": true
    },
    {
        "title": "取樣日期",
        "value": "2019/4/18",
        "normal": true
    },
    {
        "title": "運送日期",
        "value": "2019/6/11",
        "normal": true
    },
    {
        "title": "列印日期",
        "value": "2021/1/21",
        "normal": true
    },
    {
        "title": "核種名稱",
        "value": "樣品活度(Bq/g)",
        "normal": true
    },
    {
        "title": "H-3",
        "value": "7.93E+02±5.07E+00",
        "normal": true
    },
    {
        "title": "C-14",
        "value": "2.72E+01±2.98E-01",
        "normal": true
    },
    {
        "title": "Mn-54",
        "value": "1.88E+01±9.79E-01",
        "normal": true
    },
    {
        "title": "Fe-55",
        "value": "1.04E+02±4.98E+00",
        "normal": true
    },
    {
        "title": "Co-60",
        "value": "1.76E+02±3.37E+00",
        "normal": true
    },
    {
        "title": "Ni-63",
        "value": "4.66E+01±7.03E+00",
        "normal": true
    },
    {
        "title": "Sr-90",
        "value": "<9.77E-02",
        "normal": true
    },
    {
        "title": "Tc-99",
        "value": "1.40E+01±8.68E-02",
        "normal": true
    },
    {
        "title": "Sb-125",
        "value": "1.46E+01±6.48E-01",
        "normal": true
    },
    {
        "title": "I-129",
        "value": "<9.34E-04",
        "normal": true
    },
    {
        "title": "Cs-137",
        "value": "3.57E+00±3.22E-01",
        "normal": true
    },
    {
        "title": "Pu-238",
        "value": "<9.55E-04",
        "normal": true
    },
    {
        "title": "Pu-239/240",
        "value": "<7.80E-04",
        "normal": true
    },
    {
        "title": "Pu-241",
        "value": "1.26E+00±2.00E-01",
        "normal": true
    },
    {
        "title": "Am-241",
        "value": "3.43E-03±5.96E-04",
        "normal": true
    },
    {
        "title": "Cm-242",
        "value": "<3.31E-04",
        "normal": true
    },
    {
        "title": "Cm-244",
        "value": "1.49E-03±3.40E-04",
        "normal": true
    }
]