[
    {
        "title": "廢棄物比例因數樣品分析結果紀錄表",
        "value": "",
        "normal": true
    },
    {
        "title": "廠別",
        "value": "核三廠",
        "normal": true
    },
    {
        "title": "機組",
        "value": "0",
        "normal": true
    },
    {
        "title": "廢料源代號",
        "value": "SLUDGE(SL)",
        "normal": true
    },
    {
        "title": "廢料源名稱",
        "value": "沉澱殘渣",
        "normal": true
    },
    {
        "title": "樣品編號",
        "value": "108T-306",
        "normal": true
    },
    {
        "title": "取樣日期",
        "value": "2019/3/11",
        "normal": true
    },
    {
        "title": "運送日期",
        "value": "2019/6/11",
        "normal": true
    },
    {
        "title": "列印日期",
        "value": "2021/1/21",
        "normal": true
    },
    {
        "title": "核種名稱",
        "value": "核種名稱",
        "normal": true
    },
    {
        "title": "H-3",
        "value": "1.24E+03±7.19E+00",
        "normal": true
    },
    {
        "title": "C-14",
        "value": "9.38E+02±2.23E+00",
        "normal": true
    },
    {
        "title": "Mn-54",
        "value": "2.72E+09±1.18E+02",
        "normal": true
    },
    {
        "title": "Fe-55",
        "value": "4.69E+04±2.89E+01",
        "normal": true
    },
    {
        "title": "Co-60",
        "value": "2.63E+04±4.97E+02",
        "normal": true
    },
    {
        "title": "Ni-63",
        "value": "5.00E+03±2.85E+01",
        "normal": true
    },
    {
        "title": "Sr-90",
        "value": "4.07E+00±2.53E-01",
        "normal": true
    },
    {
        "title": "Tc-99",
        "value": "1.53E+01±5.25E-02",
        "normal": true
    },
    {
        "title": "I-129",
        "value": "<1.58E-03",
        "normal": true
    },
    {
        "title": "Cs-137",
        "value": "9.91E+01±2.98E+01",
        "normal": true
    },
    {
        "title": "Pu-238",
        "value": "2.24E-02±4.21E-03",
        "normal": true
    },
    {
        "title": "Pu-239/240",
        "value": "2.67E-02±4.57E-03",
        "normal": true
    },
    {
        "title": "Pu-241",
        "value": "8.67E+01±3.40E+00",
        "normal": true
    },
    {
        "title": "Am-241",
        "value": "5.51E-02±5.84E-03",
        "normal": true
    },
    {
        "title": "Cm-242",
        "value": "<2.05E-03",
        "normal": true
    },
    {
        "title": "Cm-244",
        "value": "3.25E-02±9.82E-03",
        "normal": true
    }
]