[
    {
        "title": "廢棄物比例因數樣品分析結果紀錄表",
        "value": "",
        "normal": true
    },
    {
        "title": "廠別",
        "value": "核三廠",
        "normal": true
    },
    {
        "title": "機組",
        "value": "0",
        "normal": true
    },
    {
        "title": "廢料源代號",
        "value": "CVCS",
        "normal": true
    },
    {
        "title": "廢料源名稱",
        "value": "CVCS樹脂",
        "normal": true
    },
    {
        "title": "樣品編號",
        "value": "108T-301",
        "normal": true
    },
    {
        "title": "取樣日期",
        "value": "2018/10/15",
        "normal": true
    },
    {
        "title": "運送日期",
        "value": "2019/6/11",
        "normal": true
    },
    {
        "title": "列印日期",
        "value": "2021/1/21",
        "normal": true
    },
    {
        "title": "核種名稱",
        "value": "樣品活度(Bq/g)",
        "normal": true
    },
    {
        "title": "H-3",
        "value": "2.32E+02±3.25E+00",
        "normal": true
    },
    {
        "title": "C-14",
        "value": "1.49E+03±3.05E+00",
        "normal": true
    },
    {
        "title": "Mn-54",
        "value": "4.39E+04±1.05E+03",
        "normal": true
    },
    {
        "title": "Fe-55",
        "value": "3.56E+04±1.53E+01",
        "normal": true
    },
    {
        "title": "Co-60",
        "value": "7.56E+04±1.41E+03",
        "normal": true
    },
    {
        "title": "Ni-63",
        "value": "5.38E+04±4.56E+01",
        "normal": true
    },
    {
        "title": "Sr-90",
        "value": "1.42E+02±1.98E+00",
        "normal": true
    },
    {
        "title": "Nb-94",
        "value": "8.61E+01±1.96E+01",
        "normal": true
    },
    {
        "title": "Tc-99",
        "value": "3.99E+01±1.23E-01",
        "normal": true
    },
    {
        "title": "Sb-125",
        "value": "6.10E+03±1.32E+02",
        "normal": true
    },
    {
        "title": "I-129",
        "value": "<5.89E-03",
        "normal": true
    },
    {
        "title": "Cs-137",
        "value": "6.39E+03±2.29E+02",
        "normal": true
    },
    {
        "title": "Pu-238",
        "value": "2.91E-01±3.19E-02",
        "normal": true
    },
    {
        "title": "Pu-239/240",
        "value": "2.27E-01±2.83E-02",
        "normal": true
    },
    {
        "title": "Pu-241",
        "value": "3.09E+01±5.53E+00",
        "normal": true
    },
    {
        "title": "Am-241",
        "value": "2.85E-01±2.89E-02",
        "normal": true
    },
    {
        "title": "Cm-242",
        "value": "<9.50E-03",
        "normal": true
    },
    {
        "title": "Cm-244",
        "value": "8.54E-02±1.35E-02",
        "normal": true
    }
]